…
This file is a typical example of raw data that is not in tidy form. By perusing the raw data file I was able to determine that it has several columns of reasonably tidy information, such as measuring station identification tags, Latitude, Longitude, and Elevation. However, then it has thousands of columns with names like `X1990.05.10`, and these columns contain the irradiance data. There are many `NA` (missing data) values for the irradiance. Presumably, some stations did not exist for the entire period of time.


```r
#str(raw_solar, list.len=15, give.attr=FALSE)
raw_solar
```

```
## # A tibble: 82 × 9,139
##      SKN Station.Name Sta..ID Island Network   LON   LAT Elev. X1990.01.01
##    <dbl> <chr>        <chr>   <chr>  <chr>   <dbl> <dbl> <dbl>       <dbl>
##  1  87.9 IPIF         HE281   BI     HECO    -155.  19.7   111          NA
##  2 132.  Spencer      HE282   BI     HECO    -155.  20.0   454          NA
##  3 128.  Laupahoehoe  HE283   BI     HECO    -155.  19.9  1145          NA
##  4 128.  Hakalau      HE284   BI     HECO    -155.  19.8  1665          NA
##  5  93.9 KiholoBay    HE285   BI     HECO    -156.  19.9     2          NA
##  6  69.2 Palamanui    HE286   BI     HECO    -156.  19.7   297          NA
##  7  93   Mamalahoa    HE287   BI     HECO    -156.  19.8   636          NA
##  8  70.7 Puuwaawaa    HE288   BI     HECO    -156.  19.7  1659          NA
##  9  54.8 Thurston     HVT     BI     HavoNet -155.  19.4  1202          NA
## 10  54.9 Ola a        HVO     BI     HavoNet -155.  19.5  1042          NA
## # … with 72 more rows, and 9,130 more variables: X1990.01.02 <dbl>,
## #   X1990.01.03 <dbl>, X1990.01.04 <dbl>, X1990.01.05 <dbl>, X1990.01.06 <dbl>,
## #   X1990.01.07 <dbl>, X1990.01.08 <dbl>, X1990.01.09 <dbl>, X1990.01.10 <dbl>,
## #   X1990.01.11 <dbl>, X1990.01.12 <dbl>, X1990.01.13 <dbl>, X1990.01.14 <dbl>,
## #   X1990.01.15 <dbl>, X1990.01.16 <dbl>, X1990.01.17 <dbl>, X1990.01.18 <dbl>,
## #   X1990.01.19 <dbl>, X1990.01.20 <dbl>, X1990.01.21 <dbl>, X1990.01.22 <dbl>,
## #   X1990.01.23 <dbl>, X1990.01.24 <dbl>, X1990.01.25 <dbl>, …
```
…
